#NpcId;PointsReward
25001;284
25004;792
25007;1292
25010;1988
25013;1700
25016;2288
25019;320
25020;496
25023;944
25026;880
25029;1868
25032;2168
25035;2884
25038;376
25041;520
25044;820
25047;880
25050;940
25051;2592
25054;3172
25057;764
25060;300
25063;520
25064;632
25067;1812
25070;1068
25073;2828
25076;320
25079;792
25082;608
25085;1388
25088;1340
25089;1208
25092;2884
25095;396
25098;520
25099;736
25102;764
25103;1068
25106;1240
25109;3112
25112;416
25115;1200
25118;520
25119;1700
25122;1104
25125;2592
25126;3404
25127;300
25128;476
25131;908
25134;632
25137;1068
25140;2592
25143;3344
25146;248
25149;320
25152;520
25155;1200
25158;1592
25159;1036
25162;2288
25163;2884
25166;616
25169;792
25170;588
25173;764
25176;1068
25179;1240
25182;1208
25185;520
25188;416
25189;496
25192;708
25198;2884
25199;3000
25202;3112
25205;3228
25208;632
25211;540
25214;632
25217;908
25220;3056
25223;520
25226;2408
25229;3172
25230;1136
25233;1544
25234;1240
25235;3000
25238;1208
25241;1988
25244;3172
25245;3344
25248;3000
25249;3172
25252;2884
25255;2592
25256;1240
25259;1988
25260;1436
25263;2708
25266;3172
25269;2884
25272;376
25273;1700
25276;3172
25277;1700
25280;1988
25281;2884
25282;3172
25283;4872
25286;4872
25290;3344
25293;3344
25296;3112
25299;1896
25302;2032
25305;2132
25306;1492
25309;1896
25312;2032
25315;2132
25316;1492
25319;3768
25322;2652
25325;2884
25328;2940
25333;263
25334;412
25335;594
25336;820
25337;1058
25338;1282
25339;1352
25342;1352
25346;1352
25349;1352
25352;416
25354;520
25357;248
25360;340
25362;284
25365;340
25366;284
25369;320
25372;232
25373;248
25375;232
25378;232
25380;248
25383;496
25385;540
25388;520
25391;476
25392;456
25394;588
25395;764
25398;520
25401;456
25404;476
25407;1240
25410;632
25412;820
25415;632
25418;736
25420;848
25423;1276
25426;320
25429;320
25431;736
25434;1068
25437;764
25438;736
25441;764
25444;1412
25447;1608
25450;3404
25453;2884
25456;880
25460;940
25463;1104
25467;1376
25470;1444
25473;972
25475;1068
25478;1412
25481;1004
25484;908
25487;632
25490;632
25493;1068
25496;972
25498;764
25501;416
25504;608
25506;564
25509;1004
25512;972
25514;1896
25523;3056
25524;3228
25527;2100
25528;47
25531;191
25532;123
25534;221
25536;3644
25539;3708
25540;9
25542;9
25544;311
25546;304
25549;304
25552;309
25553;315
25554;321
25557;326
25560;326
25563;338
25566;344
25569;344
25572;287
25575;293
25578;293
25579;298
25582;304
25585;309
25588;315
25589;321
25592;326
25593;332
25603;533
25609;1368
25610;1368
25611;1368
25612;1368
25623;930
25624;938
25625;971
25626;971
25643;361
25644;361
25645;361
25646;361
25647;361
25648;361
25649;361
25650;361
25651;361
25652;361
25653;338
25654;349
25655;361
25659;270
25660;287
25661;304
25665;344
25666;344
25667;508
25668;508
25669;508
25670;508
25671;508
25674;499
25677;508
25680;896
25681;491
25684;499
25687;911
25690;338
25691;338
25692;338
25693;338
25694;344
25695;356
25696;361
25697;361
25698;361
25701;508
25703;442
25710;1462
25713;197
25714;126
25716;223
29001;1680
29006;1508
29014;1508
29019;30780
29020;13008
29022;10448
29028;38248
29047;14727
29054;5288
29056;1264
29060;1092
29062;5032
29065;2100
29066;30780
29067;34984
29068;38248
29095;3888
29096;3888
29099;399
29118;3997
29129;160
29132;246
29135;356
29138;489
29141;625
29144;742
29147;782
29150;3975
29163;3975
29175;3975
29176;572
29179;11965
29180;15922
29181;1795
29186;1177
